noisy_bb_learning_measurement
…
kl_c_a5b1 <- readRDS(here("adult_modeling/m_res/obs_2_a5b1_sequential_update_kl.rds")) %>% 
  mutate(complexity = "complex", 
         params = "a5b1")#needs rerun

kl_all <- bind_rows(kl_s_a1b1, 
                    kl_c_a1b1, 
                    kl_s_a1b5, 
                    kl_c_a1b5, 
                    kl_s_a5b1, 
                    kl_c_a5b1)

kl_all %>% 
  filter(complexity == "complex")

## # A tibble: 23,700 x 7
##         kl update_step feature_index trial_num trial_observation_num complexity
##      <dbl>       <dbl>         <dbl>     <int>                 <dbl> <chr>     
##  1 0.0998            2             1         1                    10 complex   
##  2 0.0600            3             1         1                    10 complex   
##  3 0.0387            4             1         1                    10 complex   
##  4 0.0264            5             1         1                    10 complex   
##  5 0.0188            6             1         1                    10 complex   
##  6 0.0138            7             1         1                    10 complex   
##  7 0.0104            8             1         1                    10 complex   
##  8 0.00791           9             1         1                    10 complex   
##  9 0.00612          10             1         1                    10 complex   
## 10 0.00477          11             1         2                    10 complex   
## #  with 23,690 more rows, and 1 more variable: params <chr>
…
